B1: git checkout master #checkout sang nhanh master
B2: git merge branch_need_to_merge # merger nhanh can merger
B3a: neu ko co loi ok
B3b: conflict xay ra:
*********************terminal*****************************************
Auto-merging new_b.txt
CONFLICT (content): Merge conflict in new_b.txt
Automatic merge failed; fix conflicts and then commit the result.
Nguyễn Đại Phong:/media/D/AIMESOFT/study/new_repo$ git stash
new_b.txt: needs merge
new_b.txt: needs merge
new_b.txt: unmerged (58c039dcfaf8be98c567f7242aa0bbf665bbcf5a)
new_b.txt: unmerged (c8325973808cb8e71a8c95202abac1cc8ae68667)
new_b.txt: unmerged (6fadd4b473a6f2705b6d78567b58741ea649db8d)
fatal: git-write-tree: error building trees
Cannot save the current index state
*********file bi conflic**********************************************
If you have questions, please
<<<<<<< HEAD
open an issue
=======
ask your question in IRC.
>>>>>>> branch-a
***********#gia quyet merge*******************************************
*********************xoa cac dong cua git va mer lai nhu sau*********
If you have questions, please
open an issue
ask your question in IRC.
[B3cccc: git stash]
B4: git add your_file_merged
B5: git commit -m "your_file_merged successful"








#################reference#################################
Trên branch master:
- Sửa file new_b.txt(nên thêm dòng bất kì), rồi commit.
Trên branch dev:
- Sửa file new_b.txt cũng thêm 1 dòng bất kì rồi commit.
Quay về nhánh master:
- call `git merge dev`.
- git khả năng sẽ auto merge hoặc không.
- Nếu nó báo lỗi unmerge thì thử resolve code rồi commit.
